EESchema Schematic File Version 2
LIBS:power
LIBS:device
LIBS:transistors
LIBS:conn
LIBS:linear
LIBS:regul
LIBS:74xx
LIBS:cmos4000
LIBS:adc-dac
LIBS:memory
LIBS:xilinx
LIBS:microcontrollers
LIBS:dsp
LIBS:microchip
LIBS:analog_switches
LIBS:motorola
LIBS:texas
LIBS:intel
LIBS:audio
LIBS:interface
LIBS:digital-audio
LIBS:philips
LIBS:display
LIBS:cypress
LIBS:siliconi
LIBS:opto
LIBS:atmel
LIBS:contrib
LIBS:valves
LIBS:my-ICs
LIBS:ina138-cache
EELAYER 25 0
EELAYER END
$Descr A4 11693 8268
encoding utf-8
Sheet 1 1
Title ""
Date ""
Rev ""
Comp ""
Comment1 ""
Comment2 ""
Comment3 ""
Comment4 ""
$EndDescr
$Comp
L INA138 U2
U 1 1 593B1971
P 5400 3650
F 0 "U2" H 5400 3550 60  0000 C CNN
F 1 "INA138" H 5400 4050 60  0000 C CNN
F 2 "TO_SOT_Packages_SMD:SOT-23-5" H 5400 3650 60  0001 C CNN
F 3 "" H 5400 3650 60  0000 C CNN
	1    5400 3650
	1    0    0    -1  
$EndComp
$Comp
L C C1
U 1 1 593B1B80
P 6250 3900
F 0 "C1" H 6275 4000 50  0000 L CNN
F 1 "100nF" H 6275 3800 50  0000 L CNN
F 2 "Capacitors_SMD:C_0805_HandSoldering" H 6288 3750 50  0001 C CNN
F 3 "" H 6250 3900 50  0000 C CNN
	1    6250 3900
	1    0    0    -1  
$EndComp
$Comp
L GND #PWR01
U 1 1 593B1C34
P 4750 4500
F 0 "#PWR01" H 4750 4250 50  0001 C CNN
F 1 "GND" H 4750 4350 50  0000 C CNN
F 2 "" H 4750 4500 50  0000 C CNN
F 3 "" H 4750 4500 50  0000 C CNN
	1    4750 4500
	1    0    0    -1  
$EndComp
$Comp
L R R2
U 1 1 593B1CB0
P 4600 4200
F 0 "R2" V 4680 4200 50  0000 C CNN
F 1 "100K" V 4600 4200 50  0000 C CNN
F 2 "Resistors_SMD:R_0805_HandSoldering" V 4530 4200 50  0001 C CNN
F 3 "" H 4600 4200 50  0000 C CNN
	1    4600 4200
	1    0    0    -1  
$EndComp
$Comp
L R R3
U 1 1 593B1D63
P 5400 4000
F 0 "R3" V 5480 4000 50  0000 C CNN
F 1 "0.1" V 5400 4000 50  0000 C CNN
F 2 "Resistors_SMD:R_2010_HandSoldering" V 5330 4000 50  0001 C CNN
F 3 "" H 5400 4000 50  0000 C CNN
	1    5400 4000
	0    1    1    0   
$EndComp
$Comp
L R R1
U 1 1 593B20AA
P 4600 3150
F 0 "R1" V 4680 3150 50  0000 C CNN
F 1 "4.7K" V 4600 3150 50  0000 C CNN
F 2 "Resistors_SMD:R_0805_HandSoldering" V 4530 3150 50  0001 C CNN
F 3 "" H 4600 3150 50  0000 C CNN
	1    4600 3150
	1    0    0    -1  
$EndComp
$Comp
L OPA363 U1
U 1 1 593B2458
P 4150 2800
F 0 "U1" H 4300 3100 50  0000 C CNN
F 1 "OPA363" H 4400 3000 50  0000 C CNN
F 2 "Housings_SOIC:SOIC-8_3.9x4.9mm_Pitch1.27mm" H 4200 3000 50  0001 C CNN
F 3 "" H 4300 3100 50  0000 C CNN
	1    4150 2800
	-1   0    0    -1  
$EndComp
$Comp
L VCC #PWR02
U 1 1 593B2536
P 4250 2300
F 0 "#PWR02" H 4250 2150 50  0001 C CNN
F 1 "VCC" H 4250 2450 50  0000 C CNN
F 2 "" H 4250 2300 50  0000 C CNN
F 3 "" H 4250 2300 50  0000 C CNN
	1    4250 2300
	1    0    0    -1  
$EndComp
$Comp
L VCC #PWR03
U 1 1 593B262B
P 6050 3300
F 0 "#PWR03" H 6050 3150 50  0001 C CNN
F 1 "VCC" H 6050 3450 50  0000 C CNN
F 2 "" H 6050 3300 50  0000 C CNN
F 3 "" H 6050 3300 50  0000 C CNN
	1    6050 3300
	1    0    0    -1  
$EndComp
$Comp
L GND #PWR04
U 1 1 593B2660
P 4250 3250
F 0 "#PWR04" H 4250 3000 50  0001 C CNN
F 1 "GND" H 4250 3100 50  0000 C CNN
F 2 "" H 4250 3250 50  0000 C CNN
F 3 "" H 4250 3250 50  0000 C CNN
	1    4250 3250
	1    0    0    -1  
$EndComp
Wire Wire Line
	4900 3600 4950 3600
Wire Wire Line
	4150 2400 4250 2400
Connection ~ 4250 2400
Wire Wire Line
	4150 2400 4150 2500
Wire Wire Line
	4250 2300 4250 2500
Connection ~ 3800 3200
Wire Wire Line
	4500 2900 4450 2900
Wire Wire Line
	4500 3200 4500 2900
Wire Wire Line
	3800 3200 4500 3200
Wire Wire Line
	4350 4450 6250 4450
Wire Wire Line
	3800 3400 3700 3400
Wire Wire Line
	3800 2800 3850 2800
Wire Wire Line
	3800 2800 3800 3400
Wire Wire Line
	4600 2700 4450 2700
Wire Wire Line
	4250 3100 4250 3250
Wire Wire Line
	4600 3000 4600 2700
Wire Wire Line
	4900 4000 4900 3600
Wire Wire Line
	3700 4000 5250 4000
Connection ~ 5950 3800
Wire Wire Line
	5950 4000 5550 4000
Connection ~ 4750 4450
Wire Wire Line
	4600 4350 4600 4450
Connection ~ 4600 3400
Wire Wire Line
	4600 3300 4600 4050
Wire Wire Line
	6250 4450 6250 4050
Wire Wire Line
	4750 3500 4750 4500
Connection ~ 6050 3400
Wire Wire Line
	6250 3400 6250 3750
Wire Wire Line
	5850 3400 6250 3400
Wire Wire Line
	5950 3600 5850 3600
Wire Wire Line
	5950 3600 5950 4000
Wire Wire Line
	3700 3800 5950 3800
Wire Wire Line
	4750 3500 4950 3500
Wire Wire Line
	4600 3400 4950 3400
Wire Wire Line
	6050 3300 6050 3400
Wire Wire Line
	4750 3600 3700 3600
Connection ~ 4750 3600
$Comp
L VCC #PWR05
U 1 1 593B2CDF
P 4000 3400
F 0 "#PWR05" H 4000 3250 50  0001 C CNN
F 1 "VCC" H 4000 3550 50  0000 C CNN
F 2 "" H 4000 3400 50  0000 C CNN
F 3 "" H 4000 3400 50  0000 C CNN
	1    4000 3400
	1    0    0    -1  
$EndComp
Wire Wire Line
	4000 3400 4000 3500
Wire Wire Line
	4000 3500 3700 3500
$Comp
L CONN_01X07 P1
U 1 1 593B3352
P 3500 3700
F 0 "P1" H 3500 4100 50  0000 C CNN
F 1 "IN-OUT" V 3600 3700 50  0000 C CNN
F 2 "Pin_Headers:Pin_Header_Angled_1x07" H 3500 3700 50  0001 C CNN
F 3 "" H 3500 3700 50  0000 C CNN
	1    3500 3700
	-1   0    0    -1  
$EndComp
Connection ~ 4900 4000
Wire Wire Line
	3700 3900 3800 3900
Wire Wire Line
	3800 3900 3800 4000
Connection ~ 3800 4000
Wire Wire Line
	3700 3700 3800 3700
Wire Wire Line
	3800 3700 3800 3800
Connection ~ 3800 3800
$Comp
L C C2
U 1 1 593B36D6
P 4350 4200
F 0 "C2" H 4375 4300 50  0000 L CNN
F 1 "22pF" H 4100 4100 50  0000 L CNN
F 2 "Capacitors_SMD:C_0805_HandSoldering" H 4388 4050 50  0001 C CNN
F 3 "" H 4350 4200 50  0000 C CNN
	1    4350 4200
	1    0    0    -1  
$EndComp
Wire Wire Line
	4350 4050 4350 3900
Wire Wire Line
	4350 3900 4600 3900
Connection ~ 4600 3900
Wire Wire Line
	4350 4350 4350 4450
Connection ~ 4600 4450
Text Notes 3550 5250 0    60   ~ 0
VCC = 5V, Gain = 20, ADC = 10bits\nR2  = 100KΩ\nVR3 max = 100mV\nVout max = 2V\nR3 = 100mΩ  : Imax = 1A, resolution = 976µA\nR3 = 1Ω : Imax = 100mA, resolution = 97.6µA
$EndSCHEMATC
